Assignment 3
…
`summarise()` has grouped output by 'name'. You can override using the
`.groups` argument.

# View the summarized dataset
median_storms

# A tibble: 655 × 4
# Groups:   name [260]
   name      year median_pressure med_hurri_f_d
   <chr>    <dbl>           <dbl>         <dbl>
 1 AL011993  1993           1000             NA
 2 AL012000  2000           1010.            NA
 3 AL021992  1992           1007             NA
 4 AL021994  1994           1016             NA
 5 AL021999  1999           1004.            NA
 6 AL022000  2000           1009             NA
 7 AL022001  2001           1011             NA
 8 AL022003  2003           1008.            NA
 9 AL022006  2006           1009              0
10 AL031987  1987           1009             NA
# ℹ 645 more rows
…
